<?xml version="1.0" encoding="UTF-8" standalone="no"?>
<!DOCTYPE svg PUBLIC "-//W3C//DTD SVG 1.1//EN" "http://www.w3.org/Graphics/SVG/1.1/DTD/svg11.dtd">
<svg height="247.129437pt" version="1.1" viewBox="0 0 414.489502 247.129437" width="414.489502pt" xmlns="http://www.w3.org/2000/svg" xmlns:xlink="http://www.w3.org/1999/xlink">
 <metadata>
  <rdf:RDF xmlns:cc="http://creativecommons.org/ns#" xmlns:dc="http://purl.org/dc/elements/1.1/" xmlns:rdf="http://www.w3.org/1999/02/22-rdf-syntax-ns#">
   <cc:Work>
    <dc:type rdf:resource="http://purl.org/dc/dcmitype/StillImage"/>
    <dc:date>2021-04-28T21:42:10.333624</dc:date>
    <dc:format>image/svg+xml</dc:format>
    <dc:creator>
     <cc:Agent>
      <dc:title>Matplotlib v3.4.1, https://matplotlib.org/</dc:title>
     </cc:Agent>
    </dc:creator>
   </cc:Work>
  </rdf:RDF>
 </metadata>
 <defs>
  <style type="text/css">*{stroke-linecap:butt;stroke-linejoin:round;}</style>
 </defs>
 <g id="figure_1">
  <g id="patch_1">
   <path d="M 0 247.129437  L 414.489502 247.129437  L 414.489502 0  L 0 0  z " style="fill:#ffffff;"/>
  </g>
  <g id="axes_1">
   <g id="patch_2">
    <path d="M 50.355938 214.141  L 402.969502 214.141  L 402.969502 3.6  L 50.355938 3.6  z " style="fill:#ffffff;"/>
   </g>
   <g id="matplotlib.axis_1">
    <g id="xtick_1">
     <g id="line2d_1">
      <defs>
       <path d="M 0 0  L 0 3.5  " id="m7c9ee0f38f" style="stroke:#000000;stroke-width:0.8;"/>
      </defs>
      <g>
       <use style="stroke:#000000;stroke-width:0.8;" x="50.355938" xlink:href="#m7c9ee0f38f" y="214.141"/>
      </g>
     </g>
     <g id="text_1">
      <!-- $\mathdefault{10^{-1}}$ -->
      <g transform="translate(39.825938 227.979594)scale(0.09 -0.09)">
       <defs>
        <path d="M 909 0  L 909 331  L 1722 331  L 1722 4213  L 781 3603  L 781 4013  L 1919 4750  L 2350 4750  L 2350 331  L 3163 331  L 3163 0  L 909 0  z " id="DejaVuSerif-31" transform="scale(0.015625)"/>
        <path d="M 2034 219  Q 2513 219 2750 744  Q 2988 1269 2988 2328  Q 2988 3391 2750 3916  Q 2513 4441 2034 4441  Q 1556 4441 1318 3916  Q 1081 3391 1081 2328  Q 1081 1269 1318 744  Q 1556 219 2034 219  z M 2034 -91  Q 1275 -91 848 546  Q 422 1184 422 2328  Q 422 3475 848 4112  Q 1275 4750 2034 4750  Q 2797 4750 3222 4112  Q 3647 3475 3647 2328  Q 3647 1184 3222 546  Q 2797 -91 2034 -91  z " id="DejaVuSerif-30" transform="scale(0.015625)"/>
        <path d="M 678 2259  L 4684 2259  L 4684 1753  L 678 1753  L 678 2259  z " id="DejaVuSerif-2212" transform="scale(0.015625)"/>
       </defs>
       <use transform="translate(0 0.7125)" xlink:href="#DejaVuSerif-31"/>
       <use transform="translate(63.623047 0.7125)" xlink:href="#DejaVuSerif-30"/>
       <use transform="translate(128.154453 37.046875)scale(0.7)" xlink:href="#DejaVuSerif-2212"/>
       <use transform="translate(186.806797 37.046875)scale(0.7)" xlink:href="#DejaVuSerif-31"/>
      </g>
     </g>
    </g>
    <g id="xtick_2">
     <g id="line2d_2">
      <g>
       <use style="stroke:#000000;stroke-width:0.8;" x="167.893792" xlink:href="#m7c9ee0f38f" y="214.141"/>
      </g>
     </g>
     <g id="text_2">
      <!-- $\mathdefault{10^{0}}$ -->
      <g transform="translate(159.973792 227.979594)scale(0.09 -0.09)">
       <use transform="translate(0 0.7125)" xlink:href="#DejaVuSerif-31"/>
       <use transform="translate(63.623047 0.7125)" xlink:href="#DejaVuSerif-30"/>
       <use transform="translate(128.154453 37.046875)scale(0.7)" xlink:href="#DejaVuSerif-30"/>
      </g>
     </g>
    </g>
    <g id="xtick_3">
     <g id="line2d_3">
      <g>
       <use style="stroke:#000000;stroke-width:0.8;" x="285.431647" xlink:href="#m7c9ee0f38f" y="214.141"/>
      </g>
     </g>
     <g id="text_3">
      <!-- $\mathdefault{10^{1}}$ -->
      <g transform="translate(277.511647 227.979594)scale(0.09 -0.09)">
       <use transform="translate(0 0.7125)" xlink:href="#DejaVuSerif-31"/>
       <use transform="translate(63.623047 0.7125)" xlink:href="#DejaVuSerif-30"/>
       <use transform="translate(128.154453 37.046875)scale(0.7)" xlink:href="#DejaVuSerif-31"/>
      </g>
     </g>
    </g>
    <g id="xtick_4">
     <g id="line2d_4">
      <g>
       <use style="stroke:#000000;stroke-width:0.8;" x="402.969502" xlink:href="#m7c9ee0f38f" y="214.141"/>
      </g>
     </g>
     <g id="text_4">
      <!-- $\mathdefault{10^{2}}$ -->
      <g transform="translate(395.049502 227.979594)scale(0.09 -0.09)">
       <defs>
        <path d="M 819 3553  L 469 3553  L 469 4384  Q 803 4563 1142 4656  Q 1481 4750 1806 4750  Q 2534 4750 2956 4397  Q 3378 4044 3378 3438  Q 3378 2753 2422 1800  Q 2347 1728 2309 1691  L 1131 513  L 3078 513  L 3078 1088  L 3444 1088  L 3444 0  L 434 0  L 434 341  L 1850 1753  Q 2319 2222 2519 2614  Q 2719 3006 2719 3438  Q 2719 3909 2473 4175  Q 2228 4441 1797 4441  Q 1350 4441 1106 4219  Q 863 3997 819 3553  z " id="DejaVuSerif-32" transform="scale(0.015625)"/>
       </defs>
       <use transform="translate(0 0.7125)" xlink:href="#DejaVuSerif-31"/>
       <use transform="translate(63.623047 0.7125)" xlink:href="#DejaVuSerif-30"/>
       <use transform="translate(128.154453 37.046875)scale(0.7)" xlink:href="#DejaVuSerif-32"/>
      </g>
     </g>
    </g>
    <g id="xtick_5">
     <g id="line2d_5">
      <defs>
       <path d="M 0 0  L 0 2  " id="m5f876c937d" style="stroke:#000000;stroke-width:0.6;"/>
      </defs>
      <g>
       <use style="stroke:#000000;stroke-width:0.6;" x="85.738357" xlink:href="#m5f876c937d" y="214.141"/>
      </g>
     </g>
    </g>
    <g id="xtick_6">
     <g id="line2d_6">
      <g>
       <use style="stroke:#000000;stroke-width:0.6;" x="106.435746" xlink:href="#m5f876c937d" y="214.141"/>
      </g>
     </g>
    </g>
    <g id="xtick_7">
     <g id="line2d_7">
      <g>
       <use style="stroke:#000000;stroke-width:0.6;" x="121.120777" xlink:href="#m5f876c937d" y="214.141"/>
      </g>
     </g>
    </g>
    <g id="xtick_8">
     <g id="line2d_8">
      <g>
       <use style="stroke:#000000;stroke-width:0.6;" x="132.511372" xlink:href="#m5f876c937d" y="214.141"/>
      </g>
     </g>
    </g>
    <g id="xtick_9">
     <g id="line2d_9">
      <g>
       <use style="stroke:#000000;stroke-width:0.6;" x="141.818166" xlink:href="#m5f876c937d" y="214.141"/>
      </g>
     </g>
    </g>
    <g id="xtick_10">
     <g id="line2d_10">
      <g>
       <use style="stroke:#000000;stroke-width:0.6;" x="149.686948" xlink:href="#m5f876c937d" y="214.141"/>
      </g>
     </g>
    </g>
    <g id="xtick_11">
     <g id="line2d_11">
      <g>
       <use style="stroke:#000000;stroke-width:0.6;" x="156.503197" xlink:href="#m5f876c937d" y="214.141"/>
      </g>
     </g>
    </g>
    <g id="xtick_12">
     <g id="line2d_12">
      <g>
       <use style="stroke:#000000;stroke-width:0.6;" x="162.515555" xlink:href="#m5f876c937d" y="214.141"/>
      </g>
     </g>
    </g>
    <g id="xtick_13">
     <g id="line2d_13">
      <g>
       <use style="stroke:#000000;stroke-width:0.6;" x="203.276212" xlink:href="#m5f876c937d" y="214.141"/>
      </g>
     </g>
    </g>
    <g id="xtick_14">
     <g id="line2d_14">
      <g>
       <use style="stroke:#000000;stroke-width:0.6;" x="223.973601" xlink:href="#m5f876c937d" y="214.141"/>
      </g>
     </g>
    </g>
    <g id="xtick_15">
     <g id="line2d_15">
      <g>
       <use style="stroke:#000000;stroke-width:0.6;" x="238.658632" xlink:href="#m5f876c937d" y="214.141"/>
      </g>
     </g>
    </g>
    <g id="xtick_16">
     <g id="line2d_16">
      <g>
       <use style="stroke:#000000;stroke-width:0.6;" x="250.049227" xlink:href="#m5f876c937d" y="214.141"/>
      </g>
     </g>
    </g>
    <g id="xtick_17">
     <g id="line2d_17">
      <g>
       <use style="stroke:#000000;stroke-width:0.6;" x="259.356021" xlink:href="#m5f876c937d" y="214.141"/>
      </g>
     </g>
    </g>
    <g id="xtick_18">
     <g id="line2d_18">
      <g>
       <use style="stroke:#000000;stroke-width:0.6;" x="267.224803" xlink:href="#m5f876c937d" y="214.141"/>
      </g>
     </g>
    </g>
    <g id="xtick_19">
     <g id="line2d_19">
      <g>
       <use style="stroke:#000000;stroke-width:0.6;" x="274.041052" xlink:href="#m5f876c937d" y="214.141"/>
      </g>
     </g>
    </g>
    <g id="xtick_20">
     <g id="line2d_20">
      <g>
       <use style="stroke:#000000;stroke-width:0.6;" x="280.05341" xlink:href="#m5f876c937d" y="214.141"/>
      </g>
     </g>
    </g>
    <g id="xtick_21">
     <g id="line2d_21">
      <g>
       <use style="stroke:#000000;stroke-width:0.6;" x="320.814067" xlink:href="#m5f876c937d" y="214.141"/>
      </g>
     </g>
    </g>
    <g id="xtick_22">
     <g id="line2d_22">
      <g>
       <use style="stroke:#000000;stroke-width:0.6;" x="341.511456" xlink:href="#m5f876c937d" y="214.141"/>
      </g>
     </g>
    </g>
    <g id="xtick_23">
     <g id="line2d_23">
      <g>
       <use style="stroke:#000000;stroke-width:0.6;" x="356.196487" xlink:href="#m5f876c937d" y="214.141"/>
      </g>
     </g>
    </g>
    <g id="xtick_24">
     <g id="line2d_24">
      <g>
       <use style="stroke:#000000;stroke-width:0.6;" x="367.587082" xlink:href="#m5f876c937d" y="214.141"/>
      </g>
     </g>
    </g>
    <g id="xtick_25">
     <g id="line2d_25">
      <g>
       <use style="stroke:#000000;stroke-width:0.6;" x="376.893876" xlink:href="#m5f876c937d" y="214.141"/>
      </g>
     </g>
    </g>
    <g id="xtick_26">
     <g id="line2d_26">
      <g>
       <use style="stroke:#000000;stroke-width:0.6;" x="384.762658" xlink:href="#m5f876c937d" y="214.141"/>
      </g>
     </g>
    </g>
    <g id="xtick_27">
     <g id="line2d_27">
      <g>
       <use style="stroke:#000000;stroke-width:0.6;" x="391.578907" xlink:href="#m5f876c937d" y="214.141"/>
      </g>
     </g>
    </g>
    <g id="xtick_28">
     <g id="line2d_28">
      <g>
       <use style="stroke:#000000;stroke-width:0.6;" x="397.591265" xlink:href="#m5f876c937d" y="214.141"/>
      </g>
     </g>
    </g>
    <g id="text_5">
     <!--  f [Hz] (DARMx) -->
     <g transform="translate(185.923657 241.44975)scale(0.1 -0.1)">
      <defs>
       <path id="DejaVuSerif-20" transform="scale(0.015625)"/>
       <path d="M 2753 4078  L 2450 4078  Q 2447 4313 2317 4434  Q 2188 4556 1941 4556  Q 1619 4556 1487 4379  Q 1356 4203 1356 3750  L 1356 3322  L 2284 3322  L 2284 2988  L 1356 2988  L 1356 331  L 2094 331  L 2094 0  L 231 0  L 231 331  L 781 331  L 781 2988  L 231 2988  L 231 3322  L 781 3322  L 781 3738  Q 781 4294 1070 4578  Q 1359 4863 1919 4863  Q 2128 4863 2337 4825  Q 2547 4788 2753 4709  L 2753 4078  z " id="DejaVuSerif-66" transform="scale(0.015625)"/>
       <path d="M 550 4863  L 2003 4863  L 2003 4531  L 1147 4531  L 1147 -513  L 2003 -513  L 2003 -844  L 550 -844  L 550 4863  z " id="DejaVuSerif-5b" transform="scale(0.015625)"/>
       <path d="M 353 0  L 353 331  L 947 331  L 947 4331  L 353 4331  L 353 4666  L 2175 4666  L 2175 4331  L 1581 4331  L 1581 2719  L 4000 2719  L 4000 4331  L 3406 4331  L 3406 4666  L 5228 4666  L 5228 4331  L 4634 4331  L 4634 331  L 5228 331  L 5228 0  L 3406 0  L 3406 331  L 4000 331  L 4000 2338  L 1581 2338  L 1581 331  L 2175 331  L 2175 0  L 353 0  z " id="DejaVuSerif-48" transform="scale(0.015625)"/>
       <path d="M 256 0  L 256 269  L 2338 2988  L 691 2988  L 691 2413  L 359 2413  L 359 3322  L 3078 3322  L 3078 3053  L 997 331  L 2803 331  L 2803 934  L 3138 934  L 3138 0  L 256 0  z " id="DejaVuSerif-7a" transform="scale(0.015625)"/>
       <path d="M 1947 4863  L 1947 -844  L 494 -844  L 494 -513  L 1350 -513  L 1350 4531  L 494 4531  L 494 4863  L 1947 4863  z " id="DejaVuSerif-5d" transform="scale(0.015625)"/>
       <path d="M 2041 -997  Q 1281 -656 893 83  Q 506 822 506 1931  Q 506 3044 893 3783  Q 1281 4522 2041 4863  L 2041 4556  Q 1559 4225 1350 3623  Q 1141 3022 1141 1931  Q 1141 844 1350 242  Q 1559 -359 2041 -691  L 2041 -997  z " id="DejaVuSerif-28" transform="scale(0.015625)"/>
       <path d="M 1581 331  L 2163 331  Q 3072 331 3558 850  Q 4044 1369 4044 2338  Q 4044 3306 3559 3818  Q 3075 4331 2163 4331  L 1581 4331  L 1581 331  z M 353 0  L 353 331  L 947 331  L 947 4331  L 353 4331  L 353 4666  L 2209 4666  Q 3416 4666 4089 4050  Q 4763 3434 4763 2338  Q 4763 1238 4088 619  Q 3413 0 2209 0  L 353 0  z " id="DejaVuSerif-44" transform="scale(0.015625)"/>
       <path d="M 1281 1691  L 2994 1691  L 2138 3909  L 1281 1691  z M -38 0  L -38 331  L 372 331  L 2034 4666  L 2559 4666  L 4225 331  L 4684 331  L 4684 0  L 2988 0  L 2988 331  L 3506 331  L 3116 1356  L 1153 1356  L 763 331  L 1275 331  L 1275 0  L -38 0  z " id="DejaVuSerif-41" transform="scale(0.015625)"/>
       <path d="M 3066 2316  Q 3284 2256 3442 2114  Q 3600 1972 3725 1716  L 4403 331  L 4972 331  L 4972 0  L 3872 0  L 3144 1484  Q 2934 1916 2759 2042  Q 2584 2169 2278 2169  L 1581 2169  L 1581 331  L 2241 331  L 2241 0  L 353 0  L 353 331  L 947 331  L 947 4331  L 353 4331  L 353 4666  L 2719 4666  Q 3400 4666 3770 4341  Q 4141 4016 4141 3419  Q 4141 2938 3870 2661  Q 3600 2384 3066 2316  z M 1581 2503  L 2503 2503  Q 2975 2503 3200 2726  Q 3425 2950 3425 3419  Q 3425 3888 3200 4109  Q 2975 4331 2503 4331  L 1581 4331  L 1581 2503  z " id="DejaVuSerif-52" transform="scale(0.015625)"/>
       <path d="M 353 0  L 353 331  L 947 331  L 947 4331  L 319 4331  L 319 4666  L 1678 4666  L 3316 1344  L 4953 4666  L 6228 4666  L 6228 4331  L 5606 4331  L 5606 331  L 6203 331  L 6203 0  L 4378 0  L 4378 331  L 4972 331  L 4972 3938  L 3372 684  L 2931 684  L 1331 3938  L 1331 331  L 1925 331  L 1925 0  L 353 0  z " id="DejaVuSerif-4d" transform="scale(0.015625)"/>
       <path d="M 1863 2028  L 2559 2988  L 2113 2988  L 2113 3322  L 3391 3322  L 3391 2988  L 2950 2988  L 2059 1759  L 3097 331  L 3531 331  L 3531 0  L 1997 0  L 1997 331  L 2419 331  L 1697 1325  L 972 331  L 1403 331  L 1403 0  L 141 0  L 141 331  L 581 331  L 1497 1594  L 488 2988  L 78 2988  L 78 3322  L 1563 3322  L 1563 2988  L 1166 2988  L 1863 2028  z " id="DejaVuSerif-78" transform="scale(0.015625)"/>
       <path d="M 453 -997  L 453 -691  Q 934 -359 1145 242  Q 1356 844 1356 1931  Q 1356 3022 1145 3623  Q 934 4225 453 4556  L 453 4863  Q 1216 4522 1603 3783  Q 1991 3044 1991 1931  Q 1991 822 1603 83  Q 1216 -656 453 -997  z " id="DejaVuSerif-29" transform="scale(0.015625)"/>
      </defs>
      <use xlink:href="#DejaVuSerif-20"/>
      <use x="31.787109" xlink:href="#DejaVuSerif-66"/>
      <use x="68.798828" xlink:href="#DejaVuSerif-20"/>
      <use x="100.585938" xlink:href="#DejaVuSerif-5b"/>
      <use x="139.599609" xlink:href="#DejaVuSerif-48"/>
      <use x="226.806641" xlink:href="#DejaVuSerif-7a"/>
      <use x="279.492188" xlink:href="#DejaVuSerif-5d"/>
      <use x="318.505859" xlink:href="#DejaVuSerif-20"/>
      <use x="350.292969" xlink:href="#DejaVuSerif-28"/>
      <use x="389.306641" xlink:href="#DejaVuSerif-44"/>
      <use x="469.482422" xlink:href="#DejaVuSerif-41"/>
      <use x="541.699219" xlink:href="#DejaVuSerif-52"/>
      <use x="616.992188" xlink:href="#DejaVuSerif-4d"/>
      <use x="719.384766" xlink:href="#DejaVuSerif-78"/>
      <use x="775.78125" xlink:href="#DejaVuSerif-29"/>
     </g>
    </g>
   </g>
   <g id="matplotlib.axis_2">
    <g id="ytick_1">
     <g id="line2d_29">
      <defs>
       <path d="M 0 0  L -3.5 0  " id="m114f20bd5c" style="stroke:#000000;stroke-width:0.8;"/>
      </defs>
      <g>
       <use style="stroke:#000000;stroke-width:0.8;" x="50.355938" xlink:href="#m114f20bd5c" y="173.518431"/>
      </g>
     </g>
     <g id="text_6">
      <!-- $\mathdefault{10^{-22}}$ -->
      <g transform="translate(18.245938 176.937728)scale(0.09 -0.09)">
       <use transform="translate(0 0.7125)" xlink:href="#DejaVuSerif-31"/>
       <use transform="translate(63.623047 0.7125)" xlink:href="#DejaVuSerif-30"/>
       <use transform="translate(128.154453 37.046875)scale(0.7)" xlink:href="#DejaVuSerif-2212"/>
       <use transform="translate(186.806797 37.046875)scale(0.7)" xlink:href="#DejaVuSerif-32"/>
       <use transform="translate(231.34293 37.046875)scale(0.7)" xlink:href="#DejaVuSerif-32"/>
      </g>
     </g>
    </g>
    <g id="ytick_2">
     <g id="line2d_30">
      <g>
       <use style="stroke:#000000;stroke-width:0.8;" x="50.355938" xlink:href="#m114f20bd5c" y="119.892019"/>
      </g>
     </g>
     <g id="text_7">
      <!-- $\mathdefault{10^{-21}}$ -->
      <g transform="translate(18.245938 123.311316)scale(0.09 -0.09)">
       <use transform="translate(0 0.7125)" xlink:href="#DejaVuSerif-31"/>
       <use transform="translate(63.623047 0.7125)" xlink:href="#DejaVuSerif-30"/>
       <use transform="translate(128.154453 37.046875)scale(0.7)" xlink:href="#DejaVuSerif-2212"/>
       <use transform="translate(186.806797 37.046875)scale(0.7)" xlink:href="#DejaVuSerif-32"/>
       <use transform="translate(231.34293 37.046875)scale(0.7)" xlink:href="#DejaVuSerif-31"/>
      </g>
     </g>
    </g>
    <g id="ytick_3">
     <g id="line2d_31">
      <g>
       <use style="stroke:#000000;stroke-width:0.8;" x="50.355938" xlink:href="#m114f20bd5c" y="66.265606"/>
      </g>
     </g>
     <g id="text_8">
      <!-- $\mathdefault{10^{-20}}$ -->
      <g transform="translate(18.245938 69.684903)scale(0.09 -0.09)">
       <use transform="translate(0 0.7125)" xlink:href="#DejaVuSerif-31"/>
       <use transform="translate(63.623047 0.7125)" xlink:href="#DejaVuSerif-30"/>
       <use transform="translate(128.154453 37.046875)scale(0.7)" xlink:href="#DejaVuSerif-2212"/>
       <use transform="translate(186.806797 37.046875)scale(0.7)" xlink:href="#DejaVuSerif-32"/>
       <use transform="translate(231.34293 37.046875)scale(0.7)" xlink:href="#DejaVuSerif-30"/>
      </g>
     </g>
    </g>
    <g id="ytick_4">
     <g id="line2d_32">
      <g>
       <use style="stroke:#000000;stroke-width:0.8;" x="50.355938" xlink:href="#m114f20bd5c" y="12.639193"/>
      </g>
     </g>
     <g id="text_9">
      <!-- $\mathdefault{10^{-19}}$ -->
      <g transform="translate(18.245938 16.05849)scale(0.09 -0.09)">
       <defs>
        <path d="M 2994 2091  Q 2784 1856 2512 1740  Q 2241 1625 1900 1625  Q 1206 1625 804 2044  Q 403 2463 403 3188  Q 403 3897 839 4323  Q 1275 4750 2003 4750  Q 2794 4750 3217 4161  Q 3641 3572 3641 2478  Q 3641 1253 3137 581  Q 2634 -91 1722 -91  Q 1475 -91 1203 -44  Q 931 3 647 97  L 647 872  L 997 872  Q 1038 556 1241 387  Q 1444 219 1784 219  Q 2391 219 2687 676  Q 2984 1134 2994 2091  z M 1978 4441  Q 1534 4441 1298 4117  Q 1063 3794 1063 3188  Q 1063 2581 1298 2256  Q 1534 1931 1978 1931  Q 2422 1931 2658 2245  Q 2894 2559 2894 3150  Q 2894 3772 2656 4106  Q 2419 4441 1978 4441  z " id="DejaVuSerif-39" transform="scale(0.015625)"/>
       </defs>
       <use transform="translate(0 0.7125)" xlink:href="#DejaVuSerif-31"/>
       <use transform="translate(63.623047 0.7125)" xlink:href="#DejaVuSerif-30"/>
       <use transform="translate(128.154453 37.046875)scale(0.7)" xlink:href="#DejaVuSerif-2212"/>
       <use transform="translate(186.806797 37.046875)scale(0.7)" xlink:href="#DejaVuSerif-31"/>
       <use transform="translate(231.34293 37.046875)scale(0.7)" xlink:href="#DejaVuSerif-39"/>
      </g>
     </g>
    </g>
    <g id="ytick_5">
     <g id="line2d_33">
      <defs>
       <path d="M 0 0  L -2 0  " id="mc63f93d79f" style="stroke:#000000;stroke-width:0.6;"/>
      </defs>
      <g>
       <use style="stroke:#000000;stroke-width:0.6;" x="50.355938" xlink:href="#mc63f93d79f" y="211.001685"/>
      </g>
     </g>
    </g>
    <g id="ytick_6">
     <g id="line2d_34">
      <g>
       <use style="stroke:#000000;stroke-width:0.6;" x="50.355938" xlink:href="#mc63f93d79f" y="201.558543"/>
      </g>
     </g>
    </g>
    <g id="ytick_7">
     <g id="line2d_35">
      <g>
       <use style="stroke:#000000;stroke-width:0.6;" x="50.355938" xlink:href="#mc63f93d79f" y="194.858527"/>
      </g>
     </g>
    </g>
    <g id="ytick_8">
     <g id="line2d_36">
      <g>
       <use style="stroke:#000000;stroke-width:0.6;" x="50.355938" xlink:href="#mc63f93d79f" y="189.66159"/>
      </g>
     </g>
    </g>
    <g id="ytick_9">
     <g id="line2d_37">
      <g>
       <use style="stroke:#000000;stroke-width:0.6;" x="50.355938" xlink:href="#mc63f93d79f" y="185.415384"/>
      </g>
     </g>
    </g>
    <g id="ytick_10">
     <g id="line2d_38">
      <g>
       <use style="stroke:#000000;stroke-width:0.6;" x="50.355938" xlink:href="#mc63f93d79f" y="181.825268"/>
      </g>
     </g>
    </g>
    <g id="ytick_11">
     <g id="line2d_39">
      <g>
       <use style="stroke:#000000;stroke-width:0.6;" x="50.355938" xlink:href="#mc63f93d79f" y="178.715368"/>
      </g>
     </g>
    </g>
    <g id="ytick_12">
     <g id="line2d_40">
      <g>
       <use style="stroke:#000000;stroke-width:0.6;" x="50.355938" xlink:href="#mc63f93d79f" y="175.972241"/>
      </g>
     </g>
    </g>
    <g id="ytick_13">
     <g id="line2d_41">
      <g>
       <use style="stroke:#000000;stroke-width:0.6;" x="50.355938" xlink:href="#mc63f93d79f" y="157.375273"/>
      </g>
     </g>
    </g>
    <g id="ytick_14">
     <g id="line2d_42">
      <g>
       <use style="stroke:#000000;stroke-width:0.6;" x="50.355938" xlink:href="#mc63f93d79f" y="147.93213"/>
      </g>
     </g>
    </g>
    <g id="ytick_15">
     <g id="line2d_43">
      <g>
       <use style="stroke:#000000;stroke-width:0.6;" x="50.355938" xlink:href="#mc63f93d79f" y="141.232114"/>
      </g>
     </g>
    </g>
    <g id="ytick_16">
     <g id="line2d_44">
      <g>
       <use style="stroke:#000000;stroke-width:0.6;" x="50.355938" xlink:href="#mc63f93d79f" y="136.035177"/>
      </g>
     </g>
    </g>
    <g id="ytick_17">
     <g id="line2d_45">
      <g>
       <use style="stroke:#000000;stroke-width:0.6;" x="50.355938" xlink:href="#mc63f93d79f" y="131.788971"/>
      </g>
     </g>
    </g>
    <g id="ytick_18">
     <g id="line2d_46">
      <g>
       <use style="stroke:#000000;stroke-width:0.6;" x="50.355938" xlink:href="#mc63f93d79f" y="128.198855"/>
      </g>
     </g>
    </g>
    <g id="ytick_19">
     <g id="line2d_47">
      <g>
       <use style="stroke:#000000;stroke-width:0.6;" x="50.355938" xlink:href="#mc63f93d79f" y="125.088955"/>
      </g>
     </g>
    </g>
    <g id="ytick_20">
     <g id="line2d_48">
      <g>
       <use style="stroke:#000000;stroke-width:0.6;" x="50.355938" xlink:href="#mc63f93d79f" y="122.345829"/>
      </g>
     </g>
    </g>
    <g id="ytick_21">
     <g id="line2d_49">
      <g>
       <use style="stroke:#000000;stroke-width:0.6;" x="50.355938" xlink:href="#mc63f93d79f" y="103.74886"/>
      </g>
     </g>
    </g>
    <g id="ytick_22">
     <g id="line2d_50">
      <g>
       <use style="stroke:#000000;stroke-width:0.6;" x="50.355938" xlink:href="#mc63f93d79f" y="94.305717"/>
      </g>
     </g>
    </g>
    <g id="ytick_23">
     <g id="line2d_51">
      <g>
       <use style="stroke:#000000;stroke-width:0.6;" x="50.355938" xlink:href="#mc63f93d79f" y="87.605701"/>
      </g>
     </g>
    </g>
    <g id="ytick_24">
     <g id="line2d_52">
      <g>
       <use style="stroke:#000000;stroke-width:0.6;" x="50.355938" xlink:href="#mc63f93d79f" y="82.408765"/>
      </g>
     </g>
    </g>
    <g id="ytick_25">
     <g id="line2d_53">
      <g>
       <use style="stroke:#000000;stroke-width:0.6;" x="50.355938" xlink:href="#mc63f93d79f" y="78.162559"/>
      </g>
     </g>
    </g>
    <g id="ytick_26">
     <g id="line2d_54">
      <g>
       <use style="stroke:#000000;stroke-width:0.6;" x="50.355938" xlink:href="#mc63f93d79f" y="74.572442"/>
      </g>
     </g>
    </g>
    <g id="ytick_27">
     <g id="line2d_55">
      <g>
       <use style="stroke:#000000;stroke-width:0.6;" x="50.355938" xlink:href="#mc63f93d79f" y="71.462542"/>
      </g>
     </g>
    </g>
    <g id="ytick_28">
     <g id="line2d_56">
      <g>
       <use style="stroke:#000000;stroke-width:0.6;" x="50.355938" xlink:href="#mc63f93d79f" y="68.719416"/>
      </g>
     </g>
    </g>
    <g id="ytick_29">
     <g id="line2d_57">
      <g>
       <use style="stroke:#000000;stroke-width:0.6;" x="50.355938" xlink:href="#mc63f93d79f" y="50.122447"/>
      </g>
     </g>
    </g>
    <g id="ytick_30">
     <g id="line2d_58">
      <g>
       <use style="stroke:#000000;stroke-width:0.6;" x="50.355938" xlink:href="#mc63f93d79f" y="40.679305"/>
      </g>
     </g>
    </g>
    <g id="ytick_31">
     <g id="line2d_59">
      <g>
       <use style="stroke:#000000;stroke-width:0.6;" x="50.355938" xlink:href="#mc63f93d79f" y="33.979288"/>
      </g>
     </g>
    </g>
    <g id="ytick_32">
     <g id="line2d_60">
      <g>
       <use style="stroke:#000000;stroke-width:0.6;" x="50.355938" xlink:href="#mc63f93d79f" y="28.782352"/>
      </g>
     </g>
    </g>
    <g id="ytick_33">
     <g id="line2d_61">
      <g>
       <use style="stroke:#000000;stroke-width:0.6;" x="50.355938" xlink:href="#mc63f93d79f" y="24.536146"/>
      </g>
     </g>
    </g>
    <g id="ytick_34">
     <g id="line2d_62">
      <g>
       <use style="stroke:#000000;stroke-width:0.6;" x="50.355938" xlink:href="#mc63f93d79f" y="20.94603"/>
      </g>
     </g>
    </g>
    <g id="ytick_35">
     <g id="line2d_63">
      <g>
       <use style="stroke:#000000;stroke-width:0.6;" x="50.355938" xlink:href="#mc63f93d79f" y="17.83613"/>
      </g>
     </g>
    </g>
    <g id="ytick_36">
     <g id="line2d_64">
      <g>
       <use style="stroke:#000000;stroke-width:0.6;" x="50.355938" xlink:href="#mc63f93d79f" y="15.093003"/>
      </g>
     </g>
    </g>
    <g id="text_10">
     <!-- [au] -->
     <g transform="translate(11.958281 119.983938)rotate(-90)scale(0.11 -0.11)">
      <defs>
       <path d="M 2547 1044  L 2547 1747  L 1806 1747  Q 1378 1747 1168 1562  Q 959 1378 959 997  Q 959 650 1171 447  Q 1384 244 1747 244  Q 2106 244 2326 466  Q 2547 688 2547 1044  z M 3122 2075  L 3122 331  L 3634 331  L 3634 0  L 2547 0  L 2547 359  Q 2356 128 2106 18  Q 1856 -91 1522 -91  Q 969 -91 644 203  Q 319 497 319 997  Q 319 1513 691 1797  Q 1063 2081 1741 2081  L 2547 2081  L 2547 2309  Q 2547 2688 2317 2895  Q 2088 3103 1672 3103  Q 1328 3103 1125 2947  Q 922 2791 872 2484  L 575 2484  L 575 3156  Q 875 3284 1158 3348  Q 1441 3413 1709 3413  Q 2400 3413 2761 3070  Q 3122 2728 3122 2075  z " id="DejaVuSerif-61" transform="scale(0.015625)"/>
       <path d="M 2266 3322  L 3341 3322  L 3341 331  L 3884 331  L 3884 0  L 2766 0  L 2766 588  Q 2606 256 2353 82  Q 2100 -91 1766 -91  Q 1213 -91 952 223  Q 691 538 691 1209  L 691 2988  L 172 2988  L 172 3322  L 1269 3322  L 1269 1388  Q 1269 781 1417 556  Q 1566 331 1947 331  Q 2347 331 2556 625  Q 2766 919 2766 1478  L 2766 2988  L 2266 2988  L 2266 3322  z " id="DejaVuSerif-75" transform="scale(0.015625)"/>
      </defs>
      <use xlink:href="#DejaVuSerif-5b"/>
      <use x="39.013672" xlink:href="#DejaVuSerif-61"/>
      <use x="98.632812" xlink:href="#DejaVuSerif-75"/>
      <use x="163.037109" xlink:href="#DejaVuSerif-5d"/>
     </g>
    </g>
   </g>
   <g id="line2d_65">
    <path clip-path="url(#p73355be50c)" d="M 50.355938 13.170045  L 53.882073 16.38763  L 57.408209 19.605215  L 60.934344 22.822799  L 64.46048 26.040384  L 67.986616 29.257968  L 71.512751 32.475552  L 75.038887 35.693137  L 78.565023 38.910721  L 82.091158 42.128304  L 85.617294 45.345888  L 89.14343 48.563471  L 92.669565 51.781053  L 96.195701 54.998634  L 99.721837 58.216215  L 103.247972 61.433794  L 106.774108 64.651371  L 110.300243 67.868946  L 113.826379 71.086518  L 117.352515 74.304086  L 120.87865 77.521648  L 124.404786 80.739204  L 127.930922 83.95675  L 131.457057 87.174283  L 134.983193 90.3918  L 138.509329 93.609296  L 142.035464 96.826763  L 145.5616 100.044192  L 149.087736 103.261572  L 152.613871 106.478886  L 156.140007 109.696114  L 159.666142 112.913229  L 163.192278 116.130192  L 166.718414 119.346957  L 170.244549 122.563459  L 173.770685 125.779613  L 177.296821 128.995309  L 180.822956 132.210397  L 184.349092 135.424683  L 187.875228 138.637904  L 191.401363 141.849718  L 194.927499 145.059666  L 198.453635 148.26714  L 201.97977 151.471332  L 205.505906 154.671169  L 209.032042 157.865221  L 212.558177 161.051588  L 216.084313 164.227741  L 219.610448 167.390316  L 223.136584 170.534848  L 226.66272 173.655419  L 230.188855 176.744219  L 233.714991 179.790993  L 237.241127 182.782392  L 240.767262 185.701246  L 244.293398 188.525844  L 247.819534 191.229366  L 251.345669 193.779742  L 254.871805 196.14027  L 258.397941 198.271367  L 261.924076 200.133679  L 265.450212 201.692328  L 268.976347 202.921501  L 272.502483 203.808109  L 276.028619 204.353247  L 279.554754 204.570955  L 283.08089 204.484763  L 286.607026 204.123271  L 290.133161 203.516036  L 293.659297 202.690603  L 297.185433 201.670867  L 300.711568 200.476572  L 304.237704 199.123562  L 307.76384 197.624425  L 311.289975 195.989265  L 314.816111 194.22644  L 318.342246 192.343185  L 321.868382 190.346086  L 325.394518 188.241416  L 328.920653 186.035342  L 332.446789 183.734035  L 335.972925 181.343703  L 339.49906 178.870579  L 343.025196 176.320871  L 346.551332 173.700699  L 350.077467 171.016032  L 353.603603 168.272625  L 357.129739 165.475969  L 360.655874 162.631247  L 364.18201 159.743309  L 367.708146 156.816656  L 371.234281 153.855429  L 374.760417 150.863418  L 378.286552 147.844068  L 381.812688 144.800492  L 385.338824 141.735494  L 388.864959 138.651586  L 392.391095 135.551012  L 395.917231 132.435768  L 399.443366 129.307626  L 402.969502 126.168153  " style="fill:none;stroke:#0000ff;stroke-linecap:square;stroke-width:1.2;"/>
   </g>
   <g id="patch_3">
    <path d="M 50.355938 214.141  L 50.355938 3.6  " style="fill:none;stroke:#000000;stroke-linecap:square;stroke-linejoin:miter;stroke-width:0.8;"/>
   </g>
   <g id="patch_4">
    <path d="M 402.969502 214.141  L 402.969502 3.6  " style="fill:none;stroke:#000000;stroke-linecap:square;stroke-linejoin:miter;stroke-width:0.8;"/>
   </g>
   <g id="patch_5">
    <path d="M 50.355938 214.141  L 402.969502 214.141  " style="fill:none;stroke:#000000;stroke-linecap:square;stroke-linejoin:miter;stroke-width:0.8;"/>
   </g>
   <g id="patch_6">
    <path d="M 50.355938 3.6  L 402.969502 3.6  " style="fill:none;stroke:#000000;stroke-linecap:square;stroke-linejoin:miter;stroke-width:0.8;"/>
   </g>
   <g id="legend_1">
    <g id="patch_7">
     <path d="M 340.839814 26.278125  L 395.969502 26.278125  Q 397.969502 26.278125 397.969502 24.278125  L 397.969502 10.6  Q 397.969502 8.6 395.969502 8.6  L 340.839814 8.6  Q 338.839814 8.6 338.839814 10.6  L 338.839814 24.278125  Q 338.839814 26.278125 340.839814 26.278125  z " style="fill:#ffffff;opacity:0.8;stroke:#cccccc;stroke-linejoin:miter;"/>
    </g>
    <g id="line2d_66">
     <path d="M 342.839814 16.698438  L 362.839814 16.698438  " style="fill:none;stroke:#0000ff;stroke-linecap:square;stroke-width:1.2;"/>
    </g>
    <g id="line2d_67"/>
    <g id="text_11">
     <!-- NSR -->
     <g transform="translate(370.839814 20.198438)scale(0.1 -0.1)">
      <defs>
       <path d="M 313 0  L 313 331  L 941 331  L 941 4331  L 313 4331  L 313 4666  L 1509 4666  L 4306 984  L 4306 4331  L 3681 4331  L 3681 4666  L 5319 4666  L 5319 4331  L 4691 4331  L 4691 -91  L 4313 -91  L 1325 3841  L 1325 331  L 1953 331  L 1953 0  L 313 0  z " id="DejaVuSerif-4e" transform="scale(0.015625)"/>
       <path d="M 594 225  L 594 1288  L 953 1284  Q 969 753 1261 498  Q 1553 244 2150 244  Q 2706 244 2998 464  Q 3291 684 3291 1106  Q 3291 1444 3114 1625  Q 2938 1806 2369 1978  L 1753 2163  Q 1084 2366 811 2669  Q 538 2972 538 3500  Q 538 4094 959 4422  Q 1381 4750 2144 4750  Q 2469 4750 2856 4679  Q 3244 4609 3681 4475  L 3681 3481  L 3328 3481  Q 3275 3975 2998 4195  Q 2722 4416 2156 4416  Q 1663 4416 1405 4214  Q 1147 4013 1147 3628  Q 1147 3294 1340 3103  Q 1534 2913 2163 2725  L 2741 2553  Q 3375 2363 3645 2067  Q 3916 1772 3916 1275  Q 3916 597 3481 253  Q 3047 -91 2188 -91  Q 1803 -91 1404 -12  Q 1006 66 594 225  z " id="DejaVuSerif-53" transform="scale(0.015625)"/>
      </defs>
      <use xlink:href="#DejaVuSerif-4e"/>
      <use x="87.5" xlink:href="#DejaVuSerif-53"/>
      <use x="156.005859" xlink:href="#DejaVuSerif-52"/>
     </g>
    </g>
   </g>
  </g>
 </g>
 <defs>
  <clipPath id="p73355be50c">
   <rect height="210.541" width="352.613564" x="50.355938" y="3.6"/>
  </clipPath>
 </defs>
</svg>
